<?xml version="1.0" encoding="iso-8859-1"?>
<!-- Generator: Adobe Illustrator 19.0.0, SVG Export Plug-In . SVG Version: 6.00 Build 0)  -->
<svg version="1.1" id="Layer_1" xmlns="http://www.w3.org/2000/svg" xmlns:xlink="http://www.w3.org/1999/xlink" x="0px" y="0px"
	 viewBox="0 0 512 512" style="enable-background:new 0 0 512 512;" xml:space="preserve">
<g>
	<g>
		<path d="M298.668,256c3.917,0,7.322-2.662,8.269-6.468l8.38-33.493l85.094-204.22c1.101-2.637,0.802-5.641-0.777-8.021
			c-1.587-2.372-4.25-3.797-7.1-3.797h-85.333c-3.447,0-6.554,2.074-7.876,5.248l-41.105,98.645L221.322,5.53
			C220.076,2.21,216.893,0,213.335,0h-93.867c-2.85,0-5.521,1.425-7.1,3.797c-1.587,2.381-1.877,5.385-0.777,8.021l85.094,204.22
			l8.371,33.493c0.947,3.806,4.361,6.468,8.277,6.468h34.133v17.502c-61.892,4.403-110.933,56.038-110.933,119.031
			c0,65.877,53.589,119.467,119.467,119.467c65.869,0,119.467-53.589,119.467-119.467c0-62.993-49.041-114.628-110.933-119.031V256
			H298.668z M265.687,130.364v-0.009l47.206-113.289h24.175L258.851,204.8h-24.183l10.163-24.405L265.687,130.364z M182.981,17.067
			h24.431l41.216,109.85l-12.868,30.891L182.981,17.067z M256.001,307.2c4.71,0,8.533,3.814,8.533,8.533s-3.823,8.533-8.533,8.533
			c-4.719,0-8.533-3.814-8.533-8.533S251.282,307.2,256.001,307.2z M179.201,401.067c-4.719,0-8.533-3.814-8.533-8.533
			c0-4.719,3.814-8.533,8.533-8.533c4.71,0,8.533,3.814,8.533,8.533C187.735,397.252,183.912,401.067,179.201,401.067z
			 M207.728,452.873c-3.328,3.337-8.738,3.337-12.075,0c-3.328-3.328-3.328-8.738,0-12.066c3.336-3.328,8.747-3.328,12.075,0
			C211.056,444.134,211.056,449.545,207.728,452.873z M207.728,344.26c-3.328,3.328-8.738,3.328-12.075,0
			c-3.328-3.336-3.328-8.738,0-12.066c3.336-3.337,8.747-3.337,12.075,0C211.056,335.522,211.056,340.924,207.728,344.26z
			 M256.001,477.867c-4.719,0-8.533-3.814-8.533-8.533s3.814-8.533,8.533-8.533c4.71,0,8.533,3.814,8.533,8.533
			S260.712,477.867,256.001,477.867z M332.801,384c4.71,0,8.533,3.814,8.533,8.533c0,4.719-3.823,8.533-8.533,8.533
			c-4.719,0-8.533-3.814-8.533-8.533C324.268,387.814,328.082,384,332.801,384z M304.274,332.194c3.328-3.337,8.73-3.337,12.066,0
			c3.337,3.328,3.337,8.73,0,12.066c-3.336,3.328-8.738,3.328-12.066,0C300.938,340.924,300.938,335.522,304.274,332.194z
			 M304.274,440.806c3.328-3.328,8.73-3.328,12.066,0c3.337,3.328,3.337,8.738,0,12.066c-3.336,3.337-8.738,3.337-12.066,0
			C300.938,449.545,300.938,444.134,304.274,440.806z M283.052,359.006c5.069,11.29,3.277,24.055-4.676,33.34l-29.423,34.321h32.648
			c4.71,0,8.533,3.814,8.533,8.533s-3.823,8.533-8.533,8.533h-51.2c-3.336,0-6.357-1.946-7.748-4.966
			c-1.399-3.029-0.905-6.588,1.271-9.114l41.498-48.418c4.309-5.035,3.891-11.162,2.057-15.224
			c-1.007-2.253-4.122-7.492-11.196-7.612c-9.694,0-17.348,7.654-17.348,17.067c0,4.719-3.823,8.533-8.533,8.533
			c-4.719,0-8.533-3.814-8.533-8.533c0-18.825,15.309-34.133,34.133-34.133C268.084,341.521,278.222,348.288,283.052,359.006z
			 M219.999,238.933l-4.267-17.067h6.135h74.402l-4.267,17.067H219.999z"/>
	</g>
</g>
<g>
</g>
<g>
</g>
<g>
</g>
<g>
</g>
<g>
</g>
<g>
</g>
<g>
</g>
<g>
</g>
<g>
</g>
<g>
</g>
<g>
</g>
<g>
</g>
<g>
</g>
<g>
</g>
<g>
</g>
</svg>
